%YAML 1.1
%TAG !u! tag:unity3d.com,2011:
--- !u!21 &2100000
Material:
  serializedVersion: 3
  m_ObjectHideFlags: 0
  m_PrefabParentObject: {fileID: 0}
  m_PrefabInternal: {fileID: 0}
  m_Name: Ind_F007-BASE
  m_Shader: {fileID: 4, guid: 0000000000000000f000000000000000, type: 0}
  m_ShaderKeywords: []
  m_CustomRenderQueue: -1
  m_SavedProperties:
    serializedVersion: 2
    m_TexEnvs:
      data:
        first:
          name: _MainTex
        second:
          m_Texture: {fileID: 2800000, guid: 249f554f1b4a63b48987cb59684b7754, type: 3}
          m_Scale: {x: 1, y: 1}
          m_Offset: {x: 0, y: 0}
      data:
        first:
          name: _BumpMap
        second:
          m_Texture: {fileID: 2800000, guid: e0ecaaa45d030ef47bfe335f55f716ed, type: 3}
          m_Scale: {x: 1, y: 1}
          m_Offset: {x: 0, y: 0}
    m_Floats:
      data:
        first:
          name: _Shininess
        second: 1
    m_Colors:
      data:
        first:
          name: _Color
        second: {r: .274509817, g: .274509817, b: .274509817, a: 1}
      data:
        first:
          name: _SpecColor
        second: {r: .75686276, g: .75686276, b: .75686276, a: 1}
--- !u!1002 &2100001
EditorExtensionImpl:
  serializedVersion: 6
